%YAML 1.1
%TAG !u! tag:unity3d.com,2011:
--- !u!1 &4342878143927513849
GameObject:
  m_ObjectHideFlags: 0
  m_CorrespondingSourceObject: {fileID: 0}
  m_PrefabInstance: {fileID: 0}
  m_PrefabAsset: {fileID: 0}
  serializedVersion: 6
  m_Component:
  - component: {fileID: 1885941529287734400}
  m_Layer: 0
  m_Name: RingGroup
  m_TagString: Untagged
  m_Icon: {fileID: 0}
  m_NavMeshLayer: 0
  m_StaticEditorFlags: 0
  m_IsActive: 1
--- !u!4 &1885941529287734400
Transform:
  m_ObjectHideFlags: 0
  m_CorrespondingSourceObject: {fileID: 0}
  m_PrefabInstance: {fileID: 0}
  m_PrefabAsset: {fileID: 0}
  m_GameObject: {fileID: 4342878143927513849}
  m_LocalRotation: {x: 0, y: 0, z: 0, w: 1}
  m_LocalPosition: {x: 0, y: 0, z: 0}
  m_LocalScale: {x: 1, y: 1, z: 1}
  m_Children:
  - {fileID: 439285666782939561}
  - {fileID: 5788223977404858286}
  m_Father: {fileID: 0}
  m_RootOrder: 0
  m_LocalEulerAnglesHint: {x: 0, y: 0, z: 0}
--- !u!1001 &613514475180584647
PrefabInstance:
  m_ObjectHideFlags: 0
  serializedVersion: 2
  m_Modification:
    m_TransformParent: {fileID: 1885941529287734400}
    m_Modifications:
    - target: {fileID: 7965490020800357242, guid: 29e11076e72da4d44a18ed8118bcabc2,
        type: 3}
      propertyPath: m_Name
      value: Ring (1)
      objectReference: {fileID: 0}
    - target: {fileID: 6399688876825219433, guid: 29e11076e72da4d44a18ed8118bcabc2,
        type: 3}
      propertyPath: m_LocalPosition.x
      value: 0
      objectReference: {fileID: 0}
    - target: {fileID: 6399688876825219433, guid: 29e11076e72da4d44a18ed8118bcabc2,
        type: 3}
      propertyPath: m_LocalPosition.y
      value: 0
      objectReference: {fileID: 0}
    - target: {fileID: 6399688876825219433, guid: 29e11076e72da4d44a18ed8118bcabc2,
        type: 3}
      propertyPath: m_LocalPosition.z
      value: 0
      objectReference: {fileID: 0}
    - target: {fileID: 6399688876825219433, guid: 29e11076e72da4d44a18ed8118bcabc2,
        type: 3}
      propertyPath: m_LocalRotation.x
      value: 1
      objectReference: {fileID: 0}
    - target: {fileID: 6399688876825219433, guid: 29e11076e72da4d44a18ed8118bcabc2,
        type: 3}
      propertyPath: m_LocalRotation.y
      value: -0
      objectReference: {fileID: 0}
    - target: {fileID: 6399688876825219433, guid: 29e11076e72da4d44a18ed8118bcabc2,
        type: 3}
      propertyPath: m_LocalRotation.z
      value: -0
      objectReference: {fileID: 0}
    - target: {fileID: 6399688876825219433, guid: 29e11076e72da4d44a18ed8118bcabc2,
        type: 3}
      propertyPath: m_LocalRotation.w
      value: 0
      objectReference: {fileID: 0}
    - target: {fileID: 6399688876825219433, guid: 29e11076e72da4d44a18ed8118bcabc2,
        type: 3}
      propertyPath: m_RootOrder
      value: 1
      objectReference: {fileID: 0}
    - target: {fileID: 6399688876825219433, guid: 29e11076e72da4d44a18ed8118bcabc2,
        type: 3}
      propertyPath: m_LocalEulerAnglesHint.x
      value: 180
      objectReference: {fileID: 0}
    - target: {fileID: 6399688876825219433, guid: 29e11076e72da4d44a18ed8118bcabc2,
        type: 3}
      propertyPath: m_LocalEulerAnglesHint.y
      value: 0
      objectReference: {fileID: 0}
    - target: {fileID: 6399688876825219433, guid: 29e11076e72da4d44a18ed8118bcabc2,
        type: 3}
      propertyPath: m_LocalEulerAnglesHint.z
      value: 0
      objectReference: {fileID: 0}
    - target: {fileID: 6399688876825219433, guid: 29e11076e72da4d44a18ed8118bcabc2,
        type: 3}
      propertyPath: m_LocalScale.x
      value: 112.20005
      objectReference: {fileID: 0}
    - target: {fileID: 6399688876825219433, guid: 29e11076e72da4d44a18ed8118bcabc2,
        type: 3}
      propertyPath: m_LocalScale.y
      value: 112.200066
      objectReference: {fileID: 0}
    - target: {fileID: 6399688876825219433, guid: 29e11076e72da4d44a18ed8118bcabc2,
        type: 3}
      propertyPath: m_LocalScale.z
      value: 112.20005
      objectReference: {fileID: 0}
    m_RemovedComponents: []
  m_SourcePrefab: {fileID: 100100000, guid: 29e11076e72da4d44a18ed8118bcabc2, type: 3}
--- !u!4 &5788223977404858286 stripped
Transform:
  m_CorrespondingSourceObject: {fileID: 6399688876825219433, guid: 29e11076e72da4d44a18ed8118bcabc2,
    type: 3}
  m_PrefabInstance: {fileID: 613514475180584647}
  m_PrefabAsset: {fileID: 0}
--- !u!1001 &6829960472405153984
PrefabInstance:
  m_ObjectHideFlags: 0
  serializedVersion: 2
  m_Modification:
    m_TransformParent: {fileID: 1885941529287734400}
    m_Modifications:
    - target: {fileID: 7965490020800357242, guid: 29e11076e72da4d44a18ed8118bcabc2,
        type: 3}
      propertyPath: m_Name
      value: Ring
      objectReference: {fileID: 0}
    - target: {fileID: 6399688876825219433, guid: 29e11076e72da4d44a18ed8118bcabc2,
        type: 3}
      propertyPath: m_LocalPosition.x
      value: 0
      objectReference: {fileID: 0}
    - target: {fileID: 6399688876825219433, guid: 29e11076e72da4d44a18ed8118bcabc2,
        type: 3}
      propertyPath: m_LocalPosition.y
      value: 0
      objectReference: {fileID: 0}
    - target: {fileID: 6399688876825219433, guid: 29e11076e72da4d44a18ed8118bcabc2,
        type: 3}
      propertyPath: m_LocalPosition.z
      value: 0
      objectReference: {fileID: 0}
    - target: {fileID: 6399688876825219433, guid: 29e11076e72da4d44a18ed8118bcabc2,
        type: 3}
      propertyPath: m_LocalRotation.x
      value: -0
      objectReference: {fileID: 0}
    - target: {fileID: 6399688876825219433, guid: 29e11076e72da4d44a18ed8118bcabc2,
        type: 3}
      propertyPath: m_LocalRotation.y
      value: -0
      objectReference: {fileID: 0}
    - target: {fileID: 6399688876825219433, guid: 29e11076e72da4d44a18ed8118bcabc2,
        type: 3}
      propertyPath: m_LocalRotation.z
      value: -0
      objectReference: {fileID: 0}
    - target: {fileID: 6399688876825219433, guid: 29e11076e72da4d44a18ed8118bcabc2,
        type: 3}
      propertyPath: m_LocalRotation.w
      value: 1
      objectReference: {fileID: 0}
    - target: {fileID: 6399688876825219433, guid: 29e11076e72da4d44a18ed8118bcabc2,
        type: 3}
      propertyPath: m_RootOrder
      value: 0
      objectReference: {fileID: 0}
    - target: {fileID: 6399688876825219433, guid: 29e11076e72da4d44a18ed8118bcabc2,
        type: 3}
      propertyPath: m_LocalEulerAnglesHint.x
      value: 0
      objectReference: {fileID: 0}
    - target: {fileID: 6399688876825219433, guid: 29e11076e72da4d44a18ed8118bcabc2,
        type: 3}
      propertyPath: m_LocalEulerAnglesHint.y
      value: 0
      objectReference: {fileID: 0}
    - target: {fileID: 6399688876825219433, guid: 29e11076e72da4d44a18ed8118bcabc2,
        type: 3}
      propertyPath: m_LocalEulerAnglesHint.z
      value: 0
      objectReference: {fileID: 0}
    - target: {fileID: 6399688876825219433, guid: 29e11076e72da4d44a18ed8118bcabc2,
        type: 3}
      propertyPath: m_LocalScale.x
      value: 112.20005
      objectReference: {fileID: 0}
    - target: {fileID: 6399688876825219433, guid: 29e11076e72da4d44a18ed8118bcabc2,
        type: 3}
      propertyPath: m_LocalScale.y
      value: 112.20002
      objectReference: {fileID: 0}
    - target: {fileID: 6399688876825219433, guid: 29e11076e72da4d44a18ed8118bcabc2,
        type: 3}
      propertyPath: m_LocalScale.z
      value: 112.20005
      objectReference: {fileID: 0}
    m_RemovedComponents: []
  m_SourcePrefab: {fileID: 100100000, guid: 29e11076e72da4d44a18ed8118bcabc2, type: 3}
--- !u!4 &439285666782939561 stripped
Transform:
  m_CorrespondingSourceObject: {fileID: 6399688876825219433, guid: 29e11076e72da4d44a18ed8118bcabc2,
    type: 3}
  m_PrefabInstance: {fileID: 6829960472405153984}
  m_PrefabAsset: {fileID: 0}
