%YAML 1.1
%TAG !u! tag:unity3d.com,2011:
--- !u!1001 &6301285931245778610
PrefabInstance:
  m_ObjectHideFlags: 0
  serializedVersion: 2
  m_Modification:
    m_TransformParent: {fileID: 0}
    m_Modifications:
    - target: {fileID: 247252503764330195, guid: a0234214800271444824421fdd5aa04e,
        type: 3}
      propertyPath: m_Enabled
      value: 0
      objectReference: {fileID: 0}
    - target: {fileID: 1473194202009404464, guid: a0234214800271444824421fdd5aa04e,
        type: 3}
      propertyPath: m_LocalPosition.x
      value: 0
      objectReference: {fileID: 0}
    - target: {fileID: 1473194202009404464, guid: a0234214800271444824421fdd5aa04e,
        type: 3}
      propertyPath: m_LocalPosition.y
      value: 0
      objectReference: {fileID: 0}
    - target: {fileID: 1473194202009404464, guid: a0234214800271444824421fdd5aa04e,
        type: 3}
      propertyPath: m_LocalPosition.z
      value: 0
      objectReference: {fileID: 0}
    - target: {fileID: 1473194202009404464, guid: a0234214800271444824421fdd5aa04e,
        type: 3}
      propertyPath: m_LocalRotation.x
      value: 0
      objectReference: {fileID: 0}
    - target: {fileID: 1473194202009404464, guid: a0234214800271444824421fdd5aa04e,
        type: 3}
      propertyPath: m_LocalRotation.y
      value: 0
      objectReference: {fileID: 0}
    - target: {fileID: 1473194202009404464, guid: a0234214800271444824421fdd5aa04e,
        type: 3}
      propertyPath: m_LocalRotation.z
      value: 0
      objectReference: {fileID: 0}
    - target: {fileID: 1473194202009404464, guid: a0234214800271444824421fdd5aa04e,
        type: 3}
      propertyPath: m_LocalRotation.w
      value: 1
      objectReference: {fileID: 0}
    - target: {fileID: 1473194202009404464, guid: a0234214800271444824421fdd5aa04e,
        type: 3}
      propertyPath: m_RootOrder
      value: 0
      objectReference: {fileID: 0}
    - target: {fileID: 1473194202009404464, guid: a0234214800271444824421fdd5aa04e,
        type: 3}
      propertyPath: m_LocalEulerAnglesHint.x
      value: 0
      objectReference: {fileID: 0}
    - target: {fileID: 1473194202009404464, guid: a0234214800271444824421fdd5aa04e,
        type: 3}
      propertyPath: m_LocalEulerAnglesHint.y
      value: 0
      objectReference: {fileID: 0}
    - target: {fileID: 1473194202009404464, guid: a0234214800271444824421fdd5aa04e,
        type: 3}
      propertyPath: m_LocalEulerAnglesHint.z
      value: 0
      objectReference: {fileID: 0}
    - target: {fileID: 1473194202009404464, guid: a0234214800271444824421fdd5aa04e,
        type: 3}
      propertyPath: m_LocalScale.x
      value: 10
      objectReference: {fileID: 0}
    - target: {fileID: 1473194202009404464, guid: a0234214800271444824421fdd5aa04e,
        type: 3}
      propertyPath: m_LocalScale.y
      value: 10
      objectReference: {fileID: 0}
    - target: {fileID: 1473194202009404464, guid: a0234214800271444824421fdd5aa04e,
        type: 3}
      propertyPath: m_LocalScale.z
      value: 10
      objectReference: {fileID: 0}
    - target: {fileID: 1473194202009404467, guid: a0234214800271444824421fdd5aa04e,
        type: 3}
      propertyPath: m_Name
      value: ExplosionPartVariant1 Variant
      objectReference: {fileID: 0}
    m_RemovedComponents: []
  m_SourcePrefab: {fileID: 100100000, guid: a0234214800271444824421fdd5aa04e, type: 3}
