{
    "name": "DialogueControls",
    "maps": [
        {
            "name": "Dialogue",
            "id": "ae40b0ec-aedb-4496-8ebb-5b1afb068612",
            "actions": [
                {
                    "name": "Skip",
                    "type": "Button",
                    "id": "2742d2ae-aa92-42dc-abf0-798892f387ba",
                    "expectedControlType": "",
                    "processors": "",
                    "interactions": ""
                }
            ],
            "bindings": [
                {
                    "name": "",
                    "id": "ef4a15e1-f26e-4160-99ec-bd05a293a801",
                    "path": "<Gamepad>/buttonSouth",
                    "interactions": "",
                    "processors": "",
                    "groups": "",
                    "action": "Skip",
                    "isComposite": false,
                    "isPartOfComposite": false
                },
                {
                    "name": "",
                    "id": "fdc6b57a-92b3-45e6-bc6c-69a034ea79e2",
                    "path": "<Keyboard>/space",
                    "interactions": "",
                    "processors": "",
                    "groups": "",
                    "action": "Skip",
                    "isComposite": false,
                    "isPartOfComposite": false
                }
            ]
        }
    ],
    "controlSchemes": []
}