%YAML 1.1
%TAG !u! tag:unity3d.com,2011:
--- !u!114 &11400000
MonoBehaviour:
  m_ObjectHideFlags: 0
  m_CorrespondingSourceObject: {fileID: 0}
  m_PrefabInstance: {fileID: 0}
  m_PrefabAsset: {fileID: 0}
  m_GameObject: {fileID: 0}
  m_Enabled: 1
  m_EditorHideFlags: 0
  m_Script: {fileID: 11500000, guid: 7ed4e37e9cf35e347be9f2d5ea23ecc4, type: 3}
  m_Name: Default
  m_EditorClassIdentifier: 
  _celestialLayerNum: 13
  _asteroidsBetweenPlanetsRange: {x: 0, y: 5}
  _coolMode: 0
  _randomizeInitialPositions: 1
  _oscillateOnY: 1
  _maxPlanets: 15
  _minPlanets: 5
  _maxDistanceBetweenPlanets: 200
  _minDistanceBetweenPlanets: 120
  _newPlanetChance: 0.8
  _maxSystemSatellites: 20
  _noneChance: 0.3
  _moonChance: 0.5
  _ringChance: 0.2
  _planets:
  - {fileID: 24820146193678615, guid: ba13e51b7b5ece1409b6a1289e41a7a9, type: 3}
  _moons:
  - {fileID: 24820146193678615, guid: e648ed7c9db83754fae86490e6802df1, type: 3}
  _asteroids:
  - {fileID: 6192083019901181189, guid: 037c4a9f3d1b1ef41ab551d84da27c53, type: 3}
  _bosses:
  - {fileID: 24820146193678615, guid: 9109b35f1a1869149b0bbd550bd0fa76, type: 3}
  _ring: {fileID: -927199367670048503, guid: 90a9f4695cafc8b4faf277639178b4d6, type: 3}
  _ringMaterials:
  - {fileID: 2100000, guid: 2539f8b797b48f24a951cd0ebe753c89, type: 2}
  - {fileID: 2100000, guid: 6ca0a966810934647b56629935e8931e, type: 2}
  - {fileID: 2100000, guid: d09a2338a9c47bc4ea8e93c207d013b0, type: 2}
  - {fileID: 2100000, guid: b2293f6f47afdd7499437a9ec9e9061d, type: 2}
  - {fileID: 2100000, guid: d55270334c5eaf346a201bca027aaa8f, type: 2}
  - {fileID: 2100000, guid: 8e1202edec532e248a41bb678cab779a, type: 2}
